<?xml version="1.0" standalone="no"?>
<!DOCTYPE svg PUBLIC "-//W3C//DTD SVG 20010904//EN"
 "http://www.w3.org/TR/2001/REC-SVG-20010904/DTD/svg10.dtd">
<svg version="1.0" xmlns="http://www.w3.org/2000/svg"
 width="85.000000pt" height="96.000000pt" viewBox="0 0 85.000000 96.000000"
 preserveAspectRatio="xMidYMid meet">

<g transform="translate(0.000000,96.000000) scale(0.100000,-0.100000)"
fill="#000000" stroke="none">
<path d="M160 913 c-7 -21 -42 -94 -79 -163 -36 -69 -69 -140 -74 -159 -17
-76 37 -166 118 -197 79 -30 157 0 209 80 45 70 32 143 -51 279 -20 33 -48 89
-64 125 -15 37 -32 68 -37 70 -6 2 -16 -14 -22 -35z m138 -226 c33 -61 42 -89
42 -126 0 -120 -123 -194 -230 -139 -93 48 -110 145 -47 258 20 36 55 102 78
147 l42 83 37 -73 c20 -39 55 -107 78 -150z"/>
<path d="M77 613 c-12 -11 -8 -63 8 -93 16 -32 61 -70 81 -70 23 0 16 37 -11
54 -13 9 -32 38 -42 66 -17 49 -23 56 -36 43z"/>
<path d="M404 340 c-192 -176 -350 -325 -352 -330 -2 -6 2 -10 8 -10 11 0 720
645 720 655 0 23 -73 -38 -376 -315z"/>
<path d="M697 262 c-26 -53 -48 -106 -47 -117 0 -30 25 -60 65 -79 33 -16 37
-16 71 0 44 21 67 68 55 110 -5 16 -22 53 -40 82 -17 29 -34 64 -37 77 -3 14
-9 25 -13 25 -3 -1 -28 -44 -54 -98z m102 -36 c37 -70 38 -87 7 -122 -45 -54
-136 -25 -136 43 0 14 17 56 37 94 42 79 43 79 92 -15z"/>
<path d="M700 155 c0 -20 43 -62 48 -47 4 12 -28 61 -40 62 -5 0 -8 -7 -8 -15z"/>
</g>
</svg>
